[{
    "mailTo": "matheus.moreno@twistsystems.com, laura.moraes@twistsystems.com",
    "dashboardIds": [],
    "questionIds": ["111t", "112t", "110t"],
    "subject": "[ALERTA] Relatórios de Classe entrando e saindo do período de renovação",
    "text": "Veja os relatórios que estão dentro do período de renovação de contrato"
}]
